{
    "KPlugin": {
        "BugReportUrl": "https://bugs.kde.org/enter_bug.cgi?product=systemsettings&component=kcm_recentFiles",
        "Description": "Manage your file activity history preferences",
        "Description[ar]": "أدر تفضيلات سجل أنشطة ملفاتك",
        "Description[az]": "Fayl ilə iş jurnalı parametrlərini idarə edin",
        "Description[be]": "Кіраванне наладамі гісторыі дзеянняў з файламі",
        "Description[bg]": "Управляване на предпочитанията за историята на вашите файлови дейности",
        "Description[ca@valencia]": "Gestioneu les preferències de l'historial d'activitat dels fitxers",
        "Description[ca]": "Gestioneu les preferències de l'historial d'activitat dels fitxers",
        "Description[en_GB]": "Manage your file activity history preferences",
        "Description[es]": "Gestión de las preferencias del historial de la actividad de archivos",
        "Description[et]": "Failiajaloo eelistuste haldamine",
        "Description[eu]": "Kudeatu zure fitxategi jardueraren historiako hobespenak",
        "Description[fi]": "Hallitse tiedostotoimintahistorian asetuksia",
        "Description[fr]": "Gérer vos préférences d'historique pour vos activités sur les fichiers",
        "Description[id]": "Kelola preferensi riwayat aktivitas berkas Anda",
        "Description[it]": "Gestisci le preferenze della cronologia delle attività sui file",
        "Description[ja]": "ファイルのアクティビティ履歴の設定を管理",
        "Description[ka]": "ფაილზე აქტივობის პარამეტრების მართვა",
        "Description[lt]": "Tvarkyti failų veiklos istorijos nuostatas",
        "Description[nl]": "Uw voorkeuren voor de geschiedenis van bestandsactiviteiten beheren",
        "Description[nn]": "Vel innstillingar for logg over filaktivitet",
        "Description[pl]": "Zarządzanie ustawieniami historii działaniach na plikach",
        "Description[pt]": "Faça a gestão das preferências do seu histórico de actividade dos ficheiros",
        "Description[pt_BR]": "Gerencia as preferências de seu histórico de atividades dos arquivos",
        "Description[ru]": "Управление журналом действий с файлами",
        "Description[sk]": "Správa nastavení histórie aktivity súborov",
        "Description[sl]": "Upravljaj preference zgodovine dejavnosti na datotekah",
        "Description[sv]": "Hantera preferenser för dina filers aktivitetshistorik",
        "Description[ta]": "உங்கள் கோப்பு உலாவல் வரலாற்றை அமையுங்கள்",
        "Description[tr]": "Dosya etkinlik geçmişi tercihlerinizi yönetin",
        "Description[uk]": "Керування параметрами журналу роботи з файлами",
        "Description[vi]": "Quản lí các thiết lập lịch sử hoạt động về tệp của bạn",
        "Description[x-test]": "xxManage your file activity history preferencesxx",
        "Description[zh_CN]": "管理您的文件活动历史记录首选项",
        "Icon": "preferences-system-time",
        "Name": "Recent Files",
        "Name[ar]": "الملفات الحديثة",
        "Name[az]": "Sonuncu fayllar",
        "Name[be]": "Нядаўнія файлы",
        "Name[bg]": "Скорошни файлове",
        "Name[ca@valencia]": "Fitxers recents",
        "Name[ca]": "Fitxers recents",
        "Name[cs]": "Nedávné soubory",
        "Name[en_GB]": "Recent Files",
        "Name[es]": "Archivos recientes",
        "Name[et]": "Viimati kasutatud failid",
        "Name[eu]": "Azken aldiko fitxategiak",
        "Name[fi]": "Viimeaikaiset tiedostot",
        "Name[fr]": "Fichiers récents",
        "Name[id]": "Berkas Terkini",
        "Name[ie]": "Recent files",
        "Name[is]": "Nýlegar skrár",
        "Name[it]": "File recenti",
        "Name[ja]": "最近のファイル",
        "Name[ka]": "ბოლო ფაილები",
        "Name[lt]": "Paskiausiai naudoti failai",
        "Name[nl]": "Recente bestanden",
        "Name[nn]": "Nyleg brukte filer",
        "Name[pa]": "ਸੱਜਰੀਆਂ ਫ਼ਾਈਲਾਂ",
        "Name[pl]": "Ostatnie pliki",
        "Name[pt]": "Ficheiros Recentes",
        "Name[pt_BR]": "Arquivos recentes",
        "Name[ru]": "Последние файлы",
        "Name[sk]": "Nedávne súbory",
        "Name[sl]": "Nedavne datoteke",
        "Name[sv]": "Senaste filer",
        "Name[ta]": "சமீப கோப்புகள்",
        "Name[tr]": "Son Kullanılan Dosyalar",
        "Name[uk]": "Нещодавні файли",
        "Name[vi]": "Tệp gần đây",
        "Name[x-test]": "xxRecent Filesxx",
        "Name[zh_CN]": "最近文件",
        "ServiceTypes": [
            "KCModule"
        ]
    },
    "X-DocPath": "kcontrol/kcm_recentFiles/index.html",
    "X-KDE-FactoryName": "kcm_recentFiles",
    "X-KDE-Keywords": "history,recentlyused,activity privacy, privacy,clear history,wipe",
    "X-KDE-System-Settings-Parent-Category": "desktopbehavior",
    "X-KDE-Weight": 100
}
